{
    "name": "haxeda",
    "url" : "https://gitlab.com/dani_987/haxeda",
    "tags": ["eda","events","utility"],
    "description": "EDA-Implementation in Haxe",
    "license": "MIT",
    "version": "1.2.0",
    "classPath": "src/",
    "releasenote": "Rework isTest, add List/Array and Enum-Support, add afterUpdate, add Supervisors, and some fixes.",
    "contributors": ["dani-987"],
    "dependencies": {
        "im-exporter-builder": ""
    }
  }
